<?php 
/**
 * Este archivo implementa la clase de un objeto Recordset
 * 
 * @author luisvmt@hotmail.com
 * @version 1.0
 * @package base_datos
 */

if ( ! ( defined('TSDK_FILE_MAIN')||defined('BASEPATH')) )
    exit(__FILE__.': No direct script access allowed');

include_once(APPPATH."../../sdk_tnkka/sdk_varios/tsdk_funciones.php");

//-----------------------------------------------------------
/**
* Objecto recordset 
*
* Implementa la clase que permite interactuar con la base de datos
*
*/

class tsdk_recordset
{
    // ******************************
    // variables miembro
    // ******************************

    //-----------------------------------------------------------
    /**#@+
    * @access protected
    */

    /**
    * Representa la base de datos
    * @var object
    */
 	protected $m_basedatos=null;        //indica la base de datos
    
    /**
    * Representa el mensaje a interactuar
    * @var string
    */
    protected $m_mensaje;
    
    /**
    * Guarda el valor de SQLSTATE
    * @var integer
    */
    protected $m_sqlstate;   //guarda el SQLSTATE de la consulta
    
    /**
    * Guarda el codigo de error de la consulta
    * @var integer
    */
    protected $m_codigoerror; //guarda el codigo de error de la ejecucion de la consulta

    /**
    * Guarda la lista de items que componen el recordset
    * @var array
    */
    protected $m_listaitems;    //contiene la lista de items de la tabla (registros)
    
    /**
    * Guarda el nombre de la tabla
    * @var string
    */
    protected $m_nombretabla;

    /**#@-*/

    // ******************************
    // metodos
    // ******************************

    //-----------------------------------------------------------
    /**
    * Implementa el constructor de la clase
    *
    * @param  string    $basedatos          Se refiere al objeto base de datos
    *
    */
    function __construct($basedatos)
    {
        $this->m_basedatos = $basedatos;

        $this->m_listaitems=array();

    }

    //-----------------------------------------------------------
    /** 
    * Implementa el destructor de la clase
    *
    */
    function __destruct()
    {
    }

    //-----------------------------------------------------------
    /**
    * Get magic method
    *
    * Implementa la recuperacion de propiedades de la clase.
    * @param string $propiedad      La propiedad a devolver
    *
    *    <h5><strong>Posibles valores:</strong></h5> 
    *    <b>basedatos</b>       :   Devuelve la base de datos</br>
    *    <b>conexion</b>        :   Devuelve la conexion a la base de datos</br>
    *    <b>sqlstate</b>        :   Devuelve el valor de SQLSTATE</br>
    *    <b>codigoerror</b>     :   Devuelve el codigo de error de la consulta</br>
    *    <b>nombretabla</b>     :   Devuelve el nombre de la tabla</br>
    *    <b>mensaje</b>         :   Devuelve el mensaje de texto respectivo</br>
    * 
    * @example "sample_tsdk_recordset.php"
    */
    public function __get($propiedad)
    {
        switch ($propiedad){
        case "basedatos":
            return $this->m_basedatos;
            break;
        case "conexion":
            return $this->m_basedatos->conexion;
            break;
        case "sqlstate":
            return $this->m_sqlstate;
            break;
        case "codigoerror":
            return $this->m_codigoerror;
            break;
        case "nombretabla":
            return $this->m_nombretabla;
            break;
        case "mensaje":
            return $this->m_mensaje;
            break;

        default:
            //obteniendo valor
            if ( !isset($this->m_listaitems[$propiedad]) )
            {
			
				tsdk_error_log(tsdk_propiedades::$TRACELOG,"\n".
                	 "#x Error en get. Propiedad no encontrada: ".$propiedad.
                     ", Archivo: ".basename(__FILE__)."(".__LINE__."), Funcion: ".__CLASS__."::".__FUNCTION__.
                        "\n"
                    );

            }else{
                return $this->get_item_valor($propiedad);
            }
            break;
        }
    }

    //-----------------------------------------------------------
    /**
    * Set magic method
    *
    * Implementa la modificacion de propiedades de la clase.
    * @param string $propiedad      La propiedad a devolver
    *
    *    <h5><strong>Posibles valores:</strong></h5> 
    *    <b>nombretabla</b>     :   Devuelve el nombre de la tabla</br>
    *    <b>mensaje</b>         :   Devuelve el mensaje de texto respectivo</br>
    * 
    * @param string $value        El valor a establecer en la propiedad
    * @example "sample_tsdk_recordset.php"
    */
    public function __set($propiedad, $value)
    {
        switch ($propiedad){
        //case "conexion":
        //  $this->m_conexion=$value;
        //  break;
        case "nombretabla":
            $this->m_nombretabla=$value;
        case "mensaje":
            $this->m_mensaje=$value;
            break;

        default:
            //estableciendo valor
            $this->set_item_valor($propiedad,$value);
            break;
        }
    }

    //-----------------------------------------------------------
    /**
    * Devuelve la consulta SQL para contar las filas
	* @access public
    * @param   	string 		$campos_especiales 		Indica los campos que tienen caracteres especiales
    * @return   string      El valor de los items, expresado en formato XML
    * @example "sample_tsdk_recordset.php"
    */
    public function get_items_as_xml($campos_especiales = array())
    {
        $salida = "";
        foreach ($this->m_listaitems as $clave => $item)
        {
            if ($item->show_in_client)
            {
                $salida .= "<".$clave.">";
                if (in_array($clave,$campos_especiales))
                    $salida .= htmlspecialchars($item->valor);
                else
                    $salida .= $item->valor;

                $salida .= "</".$clave.">\n";
            }
        }

        return $salida;
    }

    //-----------------------------------------------------------
    /**
    * Devuelve la valor del item indicado
	* @access public
    * @param   	string 		$nombre 		Indica el nombre del campo que se quiere devolver
    * @return   string      El valor del item indicado. Si no existe el item, devuelve -1
    * @example "sample_tsdk_recordset.php"
    */
    public function get_item_valor($nombre)
    {
        if (!isset($this->m_listaitems[$nombre]))
        {
            $this->m_mensaje="tsdk_recordset::get_item_valor : Item '".$nombre."' no definido.";
            
            //error_log($this->m_mensaje);

			tsdk_error_log(tsdk_propiedades::$TRACELOG,"\n".
            	 "#x ".$this->m_mensaje.
                 ", Archivo: ".basename(__FILE__)."(".__LINE__."), Funcion: ".__CLASS__."::".__FUNCTION__.
                    "\n"
                );

            //generando backtrace
            //$codigo = microtime(true);
            //write_backtrace( $codigo,get_defined_vars(),debug_backtrace() );
            //error_log("Se genero backtrace en [ ".basename(__FILE__)." ], Linea: ".__LINE__." guardada en backtrace.log con Codigo [ ".$codigo." ]");

            return -1;
        }else{
            return $this->m_listaitems[$nombre]->valor;
        }
    }

    //-----------------------------------------------------------
    /**
    * Modifica o crea el valor de un item
	* @access public
    * @param   	string 		$nombre 		Indica el nombre del campo que se quiere modificar
    * @param   	string 		$valor 			Indica el valor del campo 
    * @return   none
    * @example "sample_tsdk_recordset.php"
    */
    public function set_item_valor($nombre,$valor)
    {
        if (!isset($this->m_listaitems[$nombre]))
        {
            $this->m_mensaje="tsdk_recordset::set_item_valor : Item '".$nombre."' no definido.";
            //watch_var(basename(__FILE__),__LINE__,__FUNCTION__,$this->m_mensaje);
            
            //error_log($this->m_mensaje);

			tsdk_error_log(tsdk_propiedades::$TRACELOG,"\n".
            	 "#x ".$this->m_mensaje.
                 ", Archivo: ".basename(__FILE__)."(".__LINE__."), Funcion: ".__CLASS__."::".__FUNCTION__.
                    "\n"
                );

            //generando backtrace
            //$codigo = microtime(true);
            //write_backtrace( $codigo,get_defined_vars(),debug_backtrace() );
            //error_log("Se genero backtrace en [ ".basename(__FILE__)." ], Linea: ".__LINE__." guardada en backtrace.log con Codigo [ ".$codigo." ]");

            return -1;
        }else{

            switch($this->m_listaitems[$nombre]->tipo)
            {
                case tsdk_tipodato::tboolean:
                    if ($valor=="on" || $valor=="ON" || $valor=="1" || $valor==1 || $valor=="true" || $valor==true)
                    {
                        $this->m_listaitems[$nombre]->valor = 1; //true
                    }else{
                        $this->m_listaitems[$nombre]->valor = 0; //false
                    }
                    break;
                default:
                    $this->m_listaitems[$nombre]->valor = $valor;
                    break;
            }
        }
    }

    //-----------------------------------------------------------
    /**
    * Modifica o crea los valores del un item
	* @access public
    * @param   	string 		$nombre 		Indica el nombre del campo que se quiere modificar
    * @param   	string 		$valor 			Indica el valor del campo 
    * @param   	boolean		$iscolumn 		Indica si el item es o no una columna
    * @param   	boolean		$isclaveprimaria 	Indica si el campo pertenece o no a la clave primariak
    * @param   	object 		$tipo 				Indica el tipo de variable del campo
    * @param   	boolean		$show_in_client 	Indica si este valor puede ser exportado (mostrado en el cliente)
    * @return   none
    * @example "sample_tsdk_recordset.php"
    */
    public function set_item($nombre,$valor,$iscolumn,$isclaveprimaria,$tipo,$show_in_client=true)
    {
        $this->m_listaitems[$nombre]= new stdClass;

        switch($tipo)
        {
            case tsdk_tipodato::tboolean:
                if ($valor=="on" || $valor=="ON" || $valor=="1" || $valor==1 || $valor=="true" || $valor==true)
                {
                    $this->m_listaitems[$nombre]->valor = 1; //true
                }else{
                    $this->m_listaitems[$nombre]->valor = 0; //false
                }
                break;
            default:
                $this->m_listaitems[$nombre]->valor = $valor;
                break;
        }

        $this->m_listaitems[$nombre]->tipo = $tipo;
        $this->m_listaitems[$nombre]->iscolumn = $iscolumn;
        $this->m_listaitems[$nombre]->isclaveprimaria = $isclaveprimaria;
        $this->m_listaitems[$nombre]->show_in_client = $show_in_client;
        //$this->m_listaitems[$nombre]->iswritable = $iswritable;
    }

    //-----------------------------------------------------------
    /**
    * Valida las variables que se pasan por parametro
	* @access private
    * @param   	array 		$arreglo  		Lista de variables a validar
    * @return   integer 					Retorna -1 en caso de error
    * @example "sample_tsdk_recordset.php"
    */
    private function validar_variables($arreglo)
    {
        foreach ($arreglo as $nombrevariable)
        {
            $objeto = $this->m_listaitems[$nombrevariable];

            switch ($objeto->tipo){
                case tsdk_tipodato::tstring:
                    {
                        break;
                    }
                case tsdk_tipodato::tstring_no_vacio:
                    {
                        $cadena=trim($objeto->valor);
                        if ($cadena=="")
                        {
                            $this->mensaje = "Campo '".$nombrevariable."' tiene tamaño cero";
                            return -1;
                        }
                        break;
                    }
                case tsdk_tipodato::tinteger:
                    {
                        //validando que es entero
                        $valor = (string)($objeto->valor);
                        $encuentros=preg_match("/[^0123456789\+\-]/",$valor); //validando entero positivo/negativo
                        if ($encuentros>0 || strlen($valor)==0)
                        {
                            //entonces (no es numero) devuelvo el valor cadena vacia
                            $mensaje="tsdk_recordset::validar_variables. Campo '".$nombrevariable."' no es valor entero";
                            
                            //error_log($mensaje);

							tsdk_error_log(tsdk_propiedades::$TRACELOG,"\n".
				            	 "#x ".$mensaje.
				                 ", Archivo: ".basename(__FILE__)."(".__LINE__."), Funcion: ".__CLASS__."::".__FUNCTION__.
				                    "\n"
				                );
							
                            //generando backtrace
                            //$codigo = microtime(true);
                            //write_backtrace( $codigo,get_defined_vars(),debug_backtrace() );
                            //error_log("Se genero backtrace en [ ".basename(__FILE__)." ], Linea: ".__LINE__." guardada en backtrace.log con Codigo [ ".$codigo." ]");

                            $this->mensaje = $mensaje;
                            return -1;
                        }
                        break;
                    }
                case tsdk_tipodato::tinteger_mayor_cero:
                    {
                        //validando que es entero
                        $valor = (string)($objeto->valor);
                        $encuentros=preg_match("/[^0123456789\+\-]/",$valor); //validando entero positivo/negativo
                        if ($encuentros>0 || strlen($valor)==0)
                        {
                            //entonces (no es numero) devuelvo el valor cadena vacia
                            $mensaje="tsdk_recordset::validar_variables. Campo '".$nombrevariable."' no es valor entero";

                            //error_log($mensaje);

							tsdk_error_log(tsdk_propiedades::$TRACELOG,"\n".
				            	 "#x ".$mensaje.
				                 ", Archivo: ".basename(__FILE__)."(".__LINE__."), Funcion: ".__CLASS__."::".__FUNCTION__.
				                    "\n"
				                );
							
                            //generando backtrace
                            //$codigo = microtime(true);
                            //write_backtrace( $codigo,get_defined_vars(),debug_backtrace() );
                            //error_log("Se genero backtrace en [ ".basename(__FILE__)." ], Linea: ".__LINE__." guardada en backtrace.log con Codigo [ ".$codigo." ]");

                            $this->mensaje=$mensaje;
                            return -1;
                        }

                        $numero = intval( (int)($objeto->valor));
                        if ($numero<=0)
                        {
                            $this->mensaje = "Campo '".$nombrevariable."' no es mayor a cero";
                            return -1;
                        }
                        break;
                    }
                case tsdk_tipodato::tinteger_mayor_igual_cero:
                    {
                        //validando que es entero
                        $valor = (string)($objeto->valor);
                        $encuentros=preg_match("/[^0123456789\+\-]/",$valor); //validando entero positivo/negativo
                        if ($encuentros>0 || strlen($valor)==0)
                        {
                            //entonces (no es numero) devuelvo el valor cadena vacia
                            $mensaje="tsdk_recordset::validar_variables. Campo '".$nombrevariable."' no es valor entero";
                            
                            //error_log($mensaje);

							tsdk_error_log(tsdk_propiedades::$TRACELOG,"\n".
				            	 "#x ".$mensaje.
				                 ", Archivo: ".basename(__FILE__)."(".__LINE__."), Funcion: ".__CLASS__."::".__FUNCTION__.
				                    "\n"
				                );
							
                            //generando backtrace
                            //$codigo = microtime(true);
                            //write_backtrace( $codigo,get_defined_vars(),debug_backtrace() );
                            //error_log("Se genero backtrace en [ ".basename(__FILE__)." ], Linea: ".__LINE__." guardada en backtrace.log con Codigo [ ".$codigo." ]");

                            $this->mensaje = $mensaje;
                            return -1;
                        }

                        $numero = intval( (int)($objeto->valor));
                        if ($numero<0)
                        {
                            $this->mensaje = "Campo '".$nombrevariable."' no es mayor o igual a cero";
                            return -1;
                        }
                        break;
                    }
                case tsdk_tipodato::tdouble:
                    {
                        //validando que es double
                        $valor = (string)($objeto->valor);
                        $encuentros=preg_match("/[^0123456789\+\-\.]/",$valor); //validando entero positivo/negativo
                        if ($encuentros>0 || strlen($valor)==0)
                        {
                            //entonces (no es numero) devuelvo el valor cadena vacia
                            $mensaje="tsdk_recordset::validar_variables. Campo '".$nombrevariable."' no es un numero";
                            
                            //error_log($mensaje);

							tsdk_error_log(tsdk_propiedades::$TRACELOG,"\n".
				            	 "#x ".$mensaje.
				                 ", Archivo: ".basename(__FILE__)."(".__LINE__."), Funcion: ".__CLASS__."::".__FUNCTION__.
				                    "\n"
				                );
							
                            //generando backtrace
                            //$codigo = microtime(true);
                            //write_backtrace( $codigo,get_defined_vars(),debug_backtrace() );
                            //error_log("Se genero backtrace en [ ".basename(__FILE__)." ], Linea: ".__LINE__." guardada en backtrace.log con Codigo [ ".$codigo." ]");

                            $this->mensaje = $mensaje;
                            return -1;
                        }

                        break;
                    }
                case tsdk_tipodato::tdouble_mayor_cero:
                    {
                        //validando que es double
                        $valor = (string)($objeto->valor);
                        $encuentros=preg_match("/[^0123456789\+\-\.]/",$valor); //validando entero positivo/negativo
                        if ($encuentros>0 || strlen($valor)==0)
                        {
                            //entonces (no es numero) devuelvo el valor cadena vacia
                            $mensaje="tsdk_recordset::validar_variables. Campo '".$nombrevariable."' no es un numero mayor a cero";
                            
                            //error_log($mensaje);

							tsdk_error_log(tsdk_propiedades::$TRACELOG,"\n".
				            	 "#x ".$mensaje.
				                 ", Archivo: ".basename(__FILE__)."(".__LINE__."), Funcion: ".__CLASS__."::".__FUNCTION__.
				                    "\n"
				                );
							
                            //generando backtrace
                            //$codigo = microtime(true);
                            //write_backtrace( $codigo,get_defined_vars(),debug_backtrace() );
                            //error_log("Se genero backtrace en [ ".basename(__FILE__)." ], Linea: ".__LINE__." guardada en backtrace.log con Codigo [ ".$codigo." ]");

                            $this->mensaje = $mensaje;
                            return -1;
                        }

                        $numero = (double)($objeto->valor);
                        if ($numero<=0)
                        {
                            $this->mensaje = "Campo '".$nombrevariable."' no es mayor a cero";
                            return -1;
                        }
                        break;
                    }
                case tsdk_tipodato::tdouble_mayor_igual_cero:
                    {
                        //validando que es double
                        $valor = (string)($objeto->valor);
                        $encuentros=preg_match("/[^0123456789\+\-\.]/",$valor); //validando entero positivo/negativo
                        if ($encuentros>0 || strlen($valor)==0)
                        {
                            //entonces (no es numero) devuelvo el valor cadena vacia
                            $mensaje="tsdk_recordset::validar_variables. Campo '".$nombrevariable."' no es valor entero";
                            
                            //error_log($mensaje);

							tsdk_error_log(tsdk_propiedades::$TRACELOG,"\n".
				            	 "#x ".$mensaje.
				                 ", Archivo: ".basename(__FILE__)."(".__LINE__."), Funcion: ".__CLASS__."::".__FUNCTION__.
				                    "\n"
				                );
							
                            //generando backtrace
                            //$codigo = microtime(true);
                            //write_backtrace( $codigo,get_defined_vars(),debug_backtrace() );
                            //error_log("Se genero backtrace en [ ".basename(__FILE__)." ], Linea: ".__LINE__." guardada en backtrace.log con Codigo [ ".$codigo." ]");

                            $this->mensaje = $mensaje;
                            return -1;
                        }

                        $numero = (double)($objeto->valor);
                        if ($numero<0)
                        {
                            $this->mensaje = "Campo '".$nombrevariable."' no es mayor o igual a cero";
                            return -1;
                        }
                        break;
                    }
                case tsdk_tipodato::tboolean:
                    {
                        if ($objeto->valor != true && $objeto->valor != false)
                        {
                            //entonces (no es numero) devuelvo el valor cadena vacia
                            $mensaje="tsdk_recordset::validar_variables. Campo '".$nombrevariable."' no es valor boolean";
                            //error_log($mensaje);

							tsdk_error_log(tsdk_propiedades::$TRACELOG,"\n".
				            	 "#x ".$mensaje.
				                 ", Archivo: ".basename(__FILE__)."(".__LINE__."), Funcion: ".__CLASS__."::".__FUNCTION__.
				                    "\n"
				                );
							
                            //generando backtrace
                            //$codigo = microtime(true);
                            //write_backtrace( $codigo,get_defined_vars(),debug_backtrace() );
                            //error_log("Se genero backtrace en [ ".basename(__FILE__)." ], Linea: ".__LINE__." guardada en backtrace.log con Codigo [ ".$codigo." ]");

                            $this->mensaje = $mensaje;
                            return -1;
                        }
                        break;
                    }
                default:
                    {
                        $mensaje="tsdk_recordset::validar_variables. Campo '".$nombrevariable."'. Tipo no definido [ ".$objeto->tipo."]";
                        //error_log($mensaje);

						tsdk_error_log(tsdk_propiedades::$TRACELOG,"\n".
			            	 "#x ".$mensaje.
			                 ", Archivo: ".basename(__FILE__)."(".__LINE__."), Funcion: ".__CLASS__."::".__FUNCTION__.
			                    "\n"
			                );
						
                        //generando backtrace
                        //$codigo = microtime(true);
                        //write_backtrace( $codigo,get_defined_vars(),debug_backtrace() );
                        //error_log("Se genero backtrace en [ ".basename(__FILE__)." ], Linea: ".__LINE__." guardada en backtrace.log con Codigo [ ".$codigo." ]");

                        $this->mensaje = $mensaje;
                        return -1;

                        break;
                    }

            }
        }
    }

    //-----------------------------------------------------------
    /**
    * Busca las variables a reemplazar
	* @access public
    * @param   	string 		$consulta 		Consulta SQL donde buscar las variables
    * @param   	object 		$tabla 			Objeto tabla
    * @return   integer 					Retorna -1 en caso de error, retorna 0 si es OK
    * @example "sample_tsdk_recordset.php"
    */
    private function bind_parametros($consulta,$tabla)
    {
        //reemplazando los valores
        try
        {
            //buscando si la clave existe, eliminando subcadenas con la misma clave
            $consulta_buscar=$consulta." ";

            foreach ($this->m_listaitems as $key => $objeto)
            {
                $texto = ":".$key;
                $texto1 = ":".$key.",";
                $texto2 = ":".$key.")";
                $texto3 = ":".$key." ";


                if ( strpos($consulta_buscar,$texto1)!=false || strpos($consulta_buscar,$texto2)!=false ||
                     strpos($consulta_buscar,$texto3)!=false )
                {
                    $tabla->bindParam($texto,$objeto->valor);

                    //error_log("texto:".$texto."\n");
                    //error_log("valor:".$objeto->valor."\n\n");
                }
            }
        }catch(PDOException $e)
        {
            $this->mensaje = $e->getMessage();
            $this->m_codigoerror = $e->getCode();
            $lineaerror = $e->getMessage()."\n".
                          "      Codigo  : ".$e->getCode()."\n".
                          "      Archivo : ".$e->getFile()."\n".
                          "      Linea   : ".$e->getLine()."\n".
                          "      SQL     : ".$consulta."\n";
            //error_log($lineaerror);

			tsdk_error_log(tsdk_propiedades::$TRACELOG,"\n".
            	 "#x ".$lineaerror.
                 ", Archivo: ".basename(__FILE__)."(".__LINE__."), Funcion: ".__CLASS__."::".__FUNCTION__.
                    "\n"
                );
			
            //generando backtrace
            //$codigo = microtime(true);
            //write_backtrace( $codigo,get_defined_vars(),debug_backtrace() );
            //error_log("Se genero backtrace en [ ".basename(__FILE__)." ], Linea: ".__LINE__." guardada en backtrace.log con Codigo [ ".$codigo." ]");

            return -1;
        }
        return 0;
    }

    //-----------------------------------------------------------
    /**
    * Reemplaza campos en la consulta ingresada como parametro
	* @access private
    * @param   	string 		$consulta 		Consulta SQL donde buscar
    * @return   string 						Consulta modificada
    * @example "sample_tsdk_recordset.php"
    */
    private function reemplazar_campos($consulta)
    {
        $salida=$consulta;

        //reemplazando los valores
        foreach ($this->m_listaitems as $key => $objeto)
        {
            $textobuscado="#".$key."#";
            $salida = str_ireplace($textobuscado, $objeto->valor, $salida);
        }

        //error_log("comando-sql:".$salida);
        return $salida;
    }

    //-----------------------------------------------------------
    /**
    * Ejecuta una consulta SQL, solo devuelve el numero de filas afectadas
	* @access public
    * @param   	string 		$consulta 		Consulta SQL a ejecutar
    * @return   integer 					Nro de filas afectadas
    * @example "sample_tsdk_recordset.php"
    */
    public function execute_sql($consulta)
    {
        if ($this->m_basedatos == null)
        {
            $this->m_mensaje="execute_sql: basedatos no establecida";
            //error_log($this->m_mensaje);

			tsdk_error_log(tsdk_propiedades::$TRACELOG,"\n".
            	 "#x ".$this->mensaje.
                 ", Archivo: ".basename(__FILE__)."(".__LINE__."), Funcion: ".__CLASS__."::".__FUNCTION__.
                    "\n"
                );
			
            //generando backtrace
            //$codigo = microtime(true);
            //write_backtrace( $codigo,get_defined_vars(),debug_backtrace() );
            //error_log("Se genero backtrace en [ ".basename(__FILE__)." ], Linea: ".__LINE__." guardada en backtrace.log con Codigo [ ".$codigo." ]");

            return -1;
        }

        //reemplazando los valores de los campos
        $consulta=$this->reemplazar_campos($consulta);

        //preparando la consulta
        //error_log("consulta2:".$consulta);

        $tabla=$this->m_basedatos->conexion->prepare($consulta);

        //error_log("tabla:".print_r($tabla));
        if ($this->bind_parametros($consulta,$tabla)<0)
        {
            $this->m_mensaje="execute_sql:".$this->m_mensaje;
            //error_log($this->m_mensaje);

			tsdk_error_log(tsdk_propiedades::$TRACELOG,"\n".
            	 "#x ".$this->m_mensaje.
                 ", Archivo: ".basename(__FILE__)."(".__LINE__."), Funcion: ".__CLASS__."::".__FUNCTION__.
                    "\n"
                );
			
            //generando backtrace
            //$codigo = microtime(true);
            //write_backtrace( $codigo,get_defined_vars(),debug_backtrace() );
            //error_log("Se genero backtrace en [ ".basename(__FILE__)." ], Linea: ".__LINE__." guardada en backtrace.log con Codigo [ ".$codigo." ]");

            return -1;
        }

        try
        {
            //error_log("consulta:".$consulta);

            if ($tabla->execute()==false)
            {
                $error=$tabla->errorInfo();
                $this->m_mensaje="SQLSTATE: ".$error[0];
                $this->m_mensaje.=", CODE: ".$error[1];
                $this->m_mensaje.=", MESSAGE: ".$error[2];

                $this->m_sqlstate=$error[0];

                //error_log(basename(__FILE__).", ".__CLASS__."::".__FUNCTION__." ==> ".$this->m_mensaje);

				tsdk_error_log(tsdk_propiedades::$TRACELOG,"\n".
	            	 "#x ".$this->m_mensaje.
	                 ", Archivo: ".basename(__FILE__)."(".__LINE__."), Funcion: ".__CLASS__."::".__FUNCTION__.
	                    "\n"
	                );
				
                //generando backtrace
                //$codigo = microtime(true);
                //write_backtrace( $codigo,get_defined_vars(),debug_backtrace() );
                //error_log("Se genero backtrace en [ ".basename(__FILE__)." ], Linea: ".__LINE__." guardada en backtrace.log con Codigo [ ".$codigo." ]");

                unset($tabla);
                return -1;
            }

            $nrofilas = $tabla->rowCount();
        }catch(PDOException $e)
        {
            $this->m_mensaje = $e->getMessage();
            $this->m_codigoerror = $e->getCode();
            $lineaerror = $e->getMessage()."\n".
                          "      Codigo  : ".$e->getCode()."\n".
                          "      Archivo : ".$e->getFile()."\n".
                          "      Linea   : ".$e->getLine()."\n".
                          "      SQL     : ".$consulta."\n";
            //error_log($lineaerror);

			tsdk_error_log(tsdk_propiedades::$TRACELOG,"\n".
            	 "#x ".$lineaerror.
                 ", Archivo: ".basename(__FILE__)."(".__LINE__."), Funcion: ".__CLASS__."::".__FUNCTION__.
                    "\n"
                );
			
            //generando backtrace
            //$codigo = microtime(true);
            //write_backtrace( $codigo,get_defined_vars(),debug_backtrace() );
            //error_log("Se genero backtrace en [ ".basename(__FILE__)." ], Linea: ".__LINE__." guardada en backtrace.log con Codigo [ ".$codigo." ]");

            return -1;
        }
        unset($tabla);

        return $nrofilas;
    }

    //-----------------------------------------------------------
    /**
    * Esta funcion utiliza el nombre de la columna, para determinar que campos (variables miembro o items) actualizar.
    * Tambien se puede usar para insertar valores
    * 
	* @access public
    * @param   	string 		$consulta 		Consulta SQL a ejecutar
    * @return   integer 					Retorna -1 en caso de error
    * @example "sample_tsdk_recordset.php"
    */
    public function obtener_campos_from_sql($consulta)
    {
        //validando la conexion
        if ($this->m_basedatos == null)
        {
            $this->m_mensaje="obtener_campos_from_sql: basedatos no establecida";
            //error_log($this->m_mensaje);

			tsdk_error_log(tsdk_propiedades::$TRACELOG,"\n".
            	 "#x ".$this->m_mensaje.
                 ", Archivo: ".basename(__FILE__)."(".__LINE__."), Funcion: ".__CLASS__."::".__FUNCTION__.
                    "\n"
                );
			
            //generando backtrace
            //$codigo = microtime(true);
            //write_backtrace( $codigo,get_defined_vars(),debug_backtrace() );
            //error_log("Se genero backtrace en [ ".basename(__FILE__)." ], Linea: ".__LINE__." guardada en backtrace.log con Codigo [ ".$codigo." ]");

            return -1;
        }

        //reemplazando los valores de los campos
        $consulta=$this->reemplazar_campos($consulta);

        //preparando la consulta
        $tabla=$this->m_basedatos->conexion->prepare($consulta);
        if ($this->bind_parametros($consulta,$tabla)<0)
        {
            $this->m_mensaje="obtener_campos_from_sql:".$this->m_mensaje;
            //error_log($this->m_mensaje);

			tsdk_error_log(tsdk_propiedades::$TRACELOG,"\n".
            	 "#x ".$this->m_mensaje.
                 ", Archivo: ".basename(__FILE__)."(".__LINE__."), Funcion: ".__CLASS__."::".__FUNCTION__.
                    "\n"
                );
			
            //generando backtrace
            //$codigo = microtime(true);
            //write_backtrace( $codigo,get_defined_vars(),debug_backtrace() );
            //error_log("Se genero backtrace en [ ".basename(__FILE__)." ], Linea: ".__LINE__." guardada en backtrace.log con Codigo [ ".$codigo." ]");

            return -1;
        }

        try
        {
            if ($tabla->execute()==false)
            {
                $error=$tabla->errorInfo();
                $this->m_mensaje="SQLSTATE: ".$error[0];
                $this->m_mensaje.=", CODE: ".$error[1];
                $this->m_mensaje.=", MESSAGE: ".$error[2];

                $this->m_sqlstate=$error[0];

                //error_log(basename(__FILE__).", ".__CLASS__."::".__FUNCTION__." ==> ".$this->m_mensaje);

				tsdk_error_log(tsdk_propiedades::$TRACELOG,"\n".
	            	 "#x ".$this->m_mensaje.
	                 ", Archivo: ".basename(__FILE__)."(".__LINE__."), Funcion: ".__CLASS__."::".__FUNCTION__.
	                    "\n"
	                );
				
                //generando backtrace
                //$codigo = microtime(true);
                //write_backtrace( $codigo,get_defined_vars(),debug_backtrace() );
                //error_log("Se genero backtrace en [ ".basename(__FILE__)." ], Linea: ".__LINE__." guardada en backtrace.log con Codigo [ ".$codigo." ]");

                unset($tabla);
                return -1;
            }

            if($row = $tabla->fetch(PDO::FETCH_ASSOC)) //obtiene solo la primera fila
            {
                foreach ($row as $key => $valor)
                {
                    $this->m_listaitems[$key]->valor = trim($valor);
                }
            }
            $nrofilas = $tabla->rowCount();
            unset($tabla);
        }catch(PDOException $e)
        {
            $this->m_mensaje = $e->getMessage();
            $this->m_codigoerror = $e->getCode();
            $lineaerror = $e->getMessage()."\n".
                          "      Codigo  : ".$e->getCode()."\n".
                          "      Archivo : ".$e->getFile()."\n".
                          "      Linea   : ".$e->getLine()."\n".
                          "      SQL     : ".$consulta."\n";
            //error_log($lineaerror);

			tsdk_error_log(tsdk_propiedades::$TRACELOG,"\n".
            	 "#x ".$lineaerror.
                 ", Archivo: ".basename(__FILE__)."(".__LINE__."), Funcion: ".__CLASS__."::".__FUNCTION__.
                    "\n"
                );
			
            //generando backtrace
            //$codigo = microtime(true);
            //write_backtrace( $codigo,get_defined_vars(),debug_backtrace() );
            //error_log("Se genero backtrace en [ ".basename(__FILE__)." ], Linea: ".__LINE__." guardada en backtrace.log con Codigo [ ".$codigo." ]");

            return -1;
        }

        return $nrofilas;
    }


    //-----------------------------------------------------------
    /**
    * Recupera los valores de una consulta y devuelve una tabla con los valores solicitados
	* @access public
    * @param   	string 		$consulta 		Consulta SQL a ejecutar
    * @return   array 					    Retorna un arreglo(tabla) con los datos solicitados, retorna -1 en caso de error.
    * @example "sample_tsdk_recordset.php"
    */
    public function get_tabla_from_sql($consulta)
    {
        $arreglo=array();  //tiene la lista de filas
        $fila=array();  //tiene los datos de una fila

        //validando la conexion
        if ($this->m_basedatos == null)
        {
            $this->m_mensaje="get_tabla_from_sql: basedatos no establecida";
            //error_log($this->m_mensaje);

			tsdk_error_log(tsdk_propiedades::$TRACELOG,"\n".
            	 "#x ".$this->m_mensaje.
                 ", Archivo: ".basename(__FILE__)."(".__LINE__."), Funcion: ".__CLASS__."::".__FUNCTION__.
                    "\n"
                );
			
            //generando backtrace
            //$codigo = microtime(true);
            //write_backtrace( $codigo,get_defined_vars(),debug_backtrace() );
            //error_log("Se genero backtrace en [ ".basename(__FILE__)." ], Linea: ".__LINE__." guardada en backtrace.log con Codigo [ ".$codigo." ]");

            return -1;
        }

        //reemplazando los valores de los campos
        $consulta=$this->reemplazar_campos($consulta);

        try
        {

            //preparando la consulta
            $tabla= $this->m_basedatos->conexion->prepare($consulta);
            if ($this->bind_parametros($consulta,$tabla)<0)
            {
                $this->m_mensaje="get_tabla_from_sql:".$this->m_mensaje;
                //error_log($this->m_mensaje);

				tsdk_error_log(tsdk_propiedades::$TRACELOG,"\n".
	            	 "#x ".$this->m_mensaje.
	                 ", Archivo: ".basename(__FILE__)."(".__LINE__."), Funcion: ".__CLASS__."::".__FUNCTION__.
	                    "\n"
	                );
				
                //generando backtrace
                //$codigo = microtime(true);
                //write_backtrace( $codigo,get_defined_vars(),debug_backtrace() );
                //error_log("Se genero backtrace en [ ".basename(__FILE__)." ], Linea: ".__LINE__." guardada en backtrace.log con Codigo [ ".$codigo." ]");

                return -1;
            }

            if ($tabla->execute()==false)
            {
                $error=$tabla->errorInfo();
                $this->m_mensaje="SQLSTATE: ".$error[0];
                $this->m_mensaje.=", CODE: ".$error[1];
                $this->m_mensaje.=", MESSAGE: ".$error[2];

                $this->m_sqlstate=$error[0];

				tsdk_error_log(tsdk_propiedades::$TRACELOG,"\n".
	            	 "#x ".$this->m_mensaje.
	                 ", Archivo: ".basename(__FILE__)."(".__LINE__."), Funcion: ".__CLASS__."::".__FUNCTION__.
	                    "\n"
	                );
                //generando backtrace
                //$codigo = microtime(true);
                //write_backtrace( $codigo,get_defined_vars(),debug_backtrace() );
                //error_log("Se genero backtrace en [ ".basename(__FILE__)." ], Linea: ".__LINE__." guardada en backtrace.log con Codigo [ ".$codigo." ]");

                unset($tabla);
                return -1;
            }

            //recorriendo el resultado
            while($row = $tabla->fetch(PDO::FETCH_ASSOC))
            {
                $fila=array();
                foreach ($row as $key => $valor)
                {
                    $fila[$key]= trim($valor);
                }
                array_push($arreglo,$fila);
            }
            //$nrofilas = $tabla->rowCount();
            unset($tabla);
        }catch(PDOException $e)
        {
            $this->m_mensaje = $e->getMessage();
            $this->m_codigoerror = $e->getCode();
            $lineaerror = $e->getMessage()."\n".
                          "      Codigo  : ".$e->getCode()."\n".
                          "      Archivo : ".$e->getFile()."\n".
                          "      Linea   : ".$e->getLine()."\n".
                          "      SQL     : ".$consulta."\n";

            //error_log($lineaerror);

			tsdk_error_log(tsdk_propiedades::$TRACELOG,"\n".
            	 "#x ".$lineaerror.
                 ", Archivo: ".basename(__FILE__)."(".__LINE__."), Funcion: ".__CLASS__."::".__FUNCTION__.
                    "\n"
                );

            //generando backtrace
            //$codigo = microtime(true);
            //write_backtrace( $codigo,get_defined_vars(),debug_backtrace() );
            //error_log("Se genero backtrace en [ ".basename(__FILE__)." ], Linea: ".__LINE__." guardada en backtrace.log con Codigo [ ".$codigo." ]");

            return -1;
        }

        return $arreglo;
        //return $nrofilas;
    }

    //-----------------------------------------------------------
    /**
    * Esta funcion devuelve una consulta INSERT clasica, utiliza los campos para su contruccion
	* @access public
    * @param   	string 		$campoautoincrement 		Indica el campo que automaticamente incrementará su valor
    * @param   	array 		$campos_no_writables 		Arreglo con la lista de campos que no se deben incluir en la consulta 
    * @param   	array 		$campos_as_basedatos 		Arreglo con la lista de campos que se deben colocar en la consulta tal cual porque son funciones
    * @return   string 		 							Retorna la consulta solicitada, retorna -1 en caso de error
    * @example "sample_tsdk_recordset.php"
    */
    public function get_sql_insert( $campoautoincrement = "", $campos_no_writables=array(), $campos_as_basedatos=array() )
    {
        $comando="insert into ";
        $comando=$comando.$this->m_nombretabla."(";

        foreach ($this->m_listaitems as $key => $objeto)
        {
            if ( $objeto->iscolumn == true && $key != $campoautoincrement && !in_array($key,$campos_no_writables,true) )
            {
                $comando .= $key.",";
            }
        }
        //quitando la ultima coma
        if ( substr($comando,strlen($comando)-1,1) == "," )
        {
            $comando=substr($comando,0,strlen($comando)-1);
        }

        $comando .= ") values(";
        foreach ($this->m_listaitems as $key => $objeto)
        {
            if ( $objeto->iscolumn == true && $key != $campoautoincrement && !in_array($key,$campos_no_writables,true) )
            {
                if (in_array($key,$campos_as_basedatos,true))
                {
                    $comando=$comando.$objeto->valor.",";
                }else{
                    $comando=$comando.":".$key.",";
                }
            }
        }

        //quitando la ultima coma
        if ( substr($comando,strlen($comando)-1,1) == "," )
            $comando = substr($comando,0,strlen($comando)-1);

        $comando .= ")";

        return $comando;
    }

    //-----------------------------------------------------------
    /**
    * Esta funcion devuelve una consulta UPDATE clasica, utiliza los campos para su contruccion
	* @access public
    * @param   	array 		$campos_no_writables 		Arreglo con la lista de campos que no se deben incluir en la consulta 
    * @param   	array 		$campos_as_basedatos 		Arreglo con la lista de campos que se deben colocar en la consulta tal cual porque son funciones
    * @return   string 		 							Retorna la consulta solicitada, retorna -1 en caso de error
    * @example "sample_tsdk_recordset.php"
    */
    public function get_sql_update($campos_no_writables=array(), $campos_as_basedatos=array() )
    {
        $comando="update ";
        $comando=$comando.$this->m_nombretabla." set ";

        foreach ($this->m_listaitems as $key => $objeto)
        {
            if ($objeto->iscolumn == true && $objeto->isclaveprimaria==false && !in_array($key,$campos_no_writables,true) )
            {
                if (in_array($key,$campos_as_basedatos,true))
                {
                    $comando=$comando.$key."=".$objeto->valor.",";
                }else{
                    $comando=$comando.$key."=:".$key.",";
                }
            }
        }

        //quitando la ultima coma
        $comando=substr($comando,0,strlen($comando)-1);
        $comando=$comando." where ";

        foreach ($this->m_listaitems as $key => $objeto)
        {
            if ($objeto->iscolumn == true && $objeto->isclaveprimaria==true)
            {
                if (in_array($key,$campos_as_basedatos,true))
                {
                    $comando=$comando.$key."=".$objeto->valor." and ";
                }else{
                    $comando=$comando.$key."=:".$key." and ";
                }
            }
        }
        //quitando el ultimo and
        $comando=substr($comando,0,strlen($comando)-5);

        return $comando;
    }

    //-----------------------------------------------------------
    /**
    * Esta funcion devuelve una consulta SELECT clasica, utiliza los campos para su contruccion
	* @access public
    * @return   string 		 							Retorna la consulta solicitada
    * @example "sample_tsdk_recordset.php"
    */
    public function get_sql_select()
    {
        $comando="select ";

        foreach ($this->m_listaitems as $key => $objeto)
        {
            if ($objeto->iscolumn == true)
            {
                $comando=$comando.$key.",";
            }
        }
        //quitando la ultima coma
        $comando=substr($comando,0,strlen($comando)-1);

        $comando=$comando." from ".$this->m_nombretabla." where ";

        foreach ($this->m_listaitems as $key => $objeto)
        {
            if ($objeto->iscolumn == true && $objeto->isclaveprimaria == true)
            {
                $comando=$comando.$key."=:".$key." and ";
            }
        }
        //quitando el ultimo and
        $comando=substr($comando,0,strlen($comando)-5);

        return $comando;
    }

    //-----------------------------------------------------------
    /**
    * Esta funcion devuelve la porcion de la consulta utilizada para el filtro
	* @access public 
	* @param    string      $prefijo 					Indica el prefijo de los campos
    * @param   	array 		$campos_filtro 				Arreglo con la lista de campos que intervienen en el filtro
    * @param   	array 		$filtro 			 		Texto a buscar en el filtro.
    * @return   string 		 							Retorna la consulta solicitada
    * @example "sample_tsdk_recordset.php"
    */
    public static function get_sql_filtro($prefijo="",$campos_filtro, $filtro)
    {
        $comando ="";
        $texto_campos="";

        //obteniendo la lista de los campos a concatenar
        if ( is_array($campos_filtro) )
        {
            $texto_campos="concat(";  //--> utilizado para mysql
            foreach ($campos_filtro as $nombre_campo)
            {
                if ($prefijo != "")
                {
                    $texto_campos .= $prefijo.".";
                }
                $texto_campos .= trim($nombre_campo).",' ',";  //--> utilizado para mysql
                //$texto_campos .= trim($nombre_campo)." || "; //--> utilizado para postgresql
            }

            //-- quitando el ultimo espacio en blanco y coma
            $texto_campos = substr($texto_campos,0,strlen($texto_campos)-5); //--> utilizado en mysql

            //-- quitando el ultimo ||
            //$texto_campos = substr($texto_campos,0,strlen($texto_campos)-4);  //--> utilizado en postgresql

            $texto_campos .= ")";  //--> utilizado en mysql

            //construyendo el filtro
            $arreglo_filtro = explode(" ",$filtro);

            //print_r($arreglo_filtro);

            if ( count($arreglo_filtro)>0 )
            {
                foreach ($arreglo_filtro as $xfiltro)
                {
                    $xfiltro = trim($xfiltro);
                    //replace('abcdefabcdef', 'cd', 'XYZ')

                    if ($xfiltro != "")
                    {
                        //utilizando por postgresql
                        //$comando .= "translate(lower(".$texto_campos."),'ñáéíóú','naeiou') like translate(lower('%".$xfiltro."%'),'ñáéíóú','naeiou') and ";

                        //utilizando por mysql, utilizando charset=utf8 y collation=utf8_general_ci
                        $comando .= $texto_campos." like '%".$xfiltro."%' and ";
                    }
                }

                //quitando el ultimo and
                $comando = substr($comando,0,strlen($comando)-5);
            }
        }
        //echo "comando:".$comando;
        return $comando;
    }

    //-----------------------------------------------------------
    /**
    * Esta funcion devuelve la consulta SQL para contar los items
	* @access public 
    * @return   string 		 							Retorna la consulta solicitada
    * @example "sample_tsdk_recordset.php"
    */
    public function get_sql_count()
    {
        $comando="select count(*) as contador ";
        $comando=$comando." from ".$this->m_nombretabla." where ";

        foreach ($this->m_listaitems as $key => $objeto)
        {
            if ($objeto->iscolumn == true && $objeto->isclaveprimaria == true)
            {
                $comando=$comando.$key."=:".$key." and ";
            }
        }
        //quitando el ultimo and
        $comando=substr($comando,0,strlen($comando)-5);

        return $comando;
    }

    //-----------------------------------------------------------
    /**
    * Esta funcion devuelve la consulta SQL para borrar los items
	* @access public 
    * @return   string 		 							Retorna la consulta solicitada
    * @example "sample_tsdk_recordset.php"
    */
    public function get_sql_delete()
    {
        $comando="delete from ";
        $comando=$comando.$this->m_nombretabla." where ";

        foreach ($this->m_listaitems as $key => $objeto)
        {
            if ($objeto->iscolumn == true && $objeto->isclaveprimaria == true)
            {
                $comando=$comando.$key."=:".$key." and ";
            }
        }
        //quitando el ultimo and
        $comando=substr($comando,0,strlen($comando)-5);

        return $comando;

    }
	
    //-----------------------------------------------------------
    /**
    * Esta funcion devuelve la consulta SQL para obtener los campos 
	* @access public 
    * @return   string 		 							Retorna la consulta solicitada
    * @example "sample_tsdk_recordset.php"
    */
    public function obtener()
    {
        $arreglo=array();

        //creando arreglo y validando los campos
        foreach ($this->m_listaitems as $key => $objeto)
        {
            if ($objeto->isclaveprimaria)
            {
                $arreglo[]=$key;
            }
        }

        $respuesta=$this->validar_variables($arreglo);
        if ($respuesta<0)
        {
            return $respuesta;
        }

        //llamando a SQL
        $consulta = $this->get_sql_select();

        return $this->obtener_campos_from_sql($consulta);
    }

    //-----------------------------------------------------------
    /**
    * Esta funcion ejecuta una consulta INSERTAR clasica.
    * Utiliza los campos para su contruccion. 
    * 
    * Los parametros de la funcion son:
    * 
    * $campoautoincrement = "" 
    * : Texto que indica el campo autoincrement, este no se incluye en la consulta.
    * 
    * $campos_no_writables = array()
    * : Arreglo con la lista de campos que no se deben incluir en la consulta.
    * 
    * $campos_as_basedatos = array()
    * : Arreglo con la lista de campos que se deben colocar en la consulta tal cual porque son funciones.
    * 
	* @access public
    * @return   integer   Devuelve el numero de filas afectadas. Devuelve -1 en caso de error.
    * @example "sample_tsdk_recordset.php"
    */
    public function insertar()
    {
        //obteniendo los parametros
        $parametros = func_get_args();
        $campoautoincrement = isset($parametros['0'])?$parametros['0']:"";
        $campos_no_writables = isset($parametros['1'])?$parametros['1']:array();
        $campos_as_basedatos = isset($parametros['2'])?$parametros['2']:array();

        //Inicio de funcion
        $arreglo=array();

        //creando arreglo y validando los campos
        foreach ($this->m_listaitems as $key => $objeto)
        {
            if ( $objeto->iscolumn && $key != $campoautoincrement && !in_array($key,$campos_no_writables,true)
                 && !in_array($key,$campos_as_basedatos,true) )
            {
                $arreglo[]=$key;
            }
        }

        $respuesta=$this->validar_variables($arreglo);
        if ($respuesta<0)
        {
            return $respuesta;
        }

        //llamando a SQL
        $consulta = $this->get_sql_insert($campoautoincrement, $campos_no_writables, $campos_as_basedatos);

/*error_log("consulta insert: ".$consulta);
error_log("nombredistrito:".$this->m_listaitems['nombredistrito']->valor);
error_log("eliminar:".$this->m_listaitems['eliminar']->valor);
error_log("idusuariocreacion:".$this->m_listaitems['idusuariocreacion']->valor);
error_log("idusuariomodificacion:".$this->m_listaitems['idusuariomodificacion']->valor);*/

        //solo para postgresql
        //if ($campoautoincrement == "")
        //{
        //  return $this->execute_sql($consulta); //--> esta funcion no actualiza ningun campo
        //}else{
        //  return $this->obtener_campos_from_sql($consulta); //--> esta funcion inserta y actualiza el campo autoincrement
        //}

        //error_log("consulta:".$consulta);

        //solo para mysql
        $respuesta=$this->execute_sql($consulta); //--> esta funcion no actualiza ningun campo
        if ($respuesta<0)
        {
            return $respuesta;
        }

        //obteniendo el autoincrement
        if ($campoautoincrement!="")
        {
            $this->set_item_valor($campoautoincrement,$this->m_basedatos->conexion->lastInsertId());
        }

        return $respuesta;
    }

    //-----------------------------------------------------------
    /**
    * Esta funcion ejecuta una consulta MODIFICAR clasica.
    * Utiliza los campos para su contruccion. 
    * 
    * Los parametros de la funcion son:
    * 
    * $campos_no_writables = array()
    * : Arreglo con la lista de campos que no se deben incluir en la consulta.
    * 
    * $campos_as_basedatos = array()
    * : Arreglo con la lista de campos que se deben colocar en la consulta tal cual porque son funciones.
    * 
	* @access public
    * @return   integer   Devuelve el numero de filas afectadas. Devuelve -1 en caso de error.
    * @example "sample_tsdk_recordset.php"
    */
    public function modificar()
    {
        //obteniendo los parametros
        $parametros = func_get_args();
        $campos_no_writables = isset($parametros['0'])?$parametros['0']:array();
        $campos_as_basedatos = isset($parametros['1'])?$parametros['1']:array();

        //Inicio de funcion
        $arreglo=array();

        //creando arreglo y validando los campos
        foreach ($this->m_listaitems as $key => $objeto )
        {
            if ( $objeto->iscolumn && !in_array($key,$campos_no_writables,true)
                 && !in_array($key,$campos_as_basedatos,true) )
            {
                $arreglo[]=$key;
            }
        }

        $respuesta=$this->validar_variables($arreglo);
        if ($respuesta<0)
        {
            return $respuesta;
        }

        //llamando a SQL
        $consulta = $this->get_sql_update($campos_no_writables,$campos_as_basedatos);
        return $this->execute_sql($consulta);
    }

    //-----------------------------------------------------------
    /**
    * Esta funcion ejecuta una consulta ELIMINAR clasica.
    * Utiliza los campos para su contruccion. 
    * 
	* @access public
    * @return   integer   Devuelve el numero de filas afectadas. Devuelve -1 en caso de error.
    * @example "sample_tsdk_recordset.php"
    */
    public function eliminar()
    {
        $arreglo=array();

        //creando arreglo y validando los campos
        foreach ($this->m_listaitems as $key => $objeto)
        {
            if ($objeto->isclaveprimaria)
            {
                $arreglo[]=$key;
            }
        }

        $respuesta=$this->validar_variables($arreglo);
        if ($respuesta<0)
        {
            return $respuesta;
        }

        //llamando a SQL
        $consulta = $this->get_sql_delete();

        //error_log("eliminar:".$consulta);
        return $this->execute_sql($consulta);
    }

    //-----------------------------------------------------------
    /**
    * Valida si el registro existe, basado en la clave primaria
    * 
	* @access public
    * @return   boolean 	Devuelve true si el registro existe, devuelve false si el registro no existe
    * @example "sample_tsdk_recordset.php"
    */
    public function existe()
    {
        $lista = array();
        $consulta = $this->get_sql_count();
        $lista=$this->get_tabla_from_sql($consulta);
        $fila=$lista[0]; //obteniendo la primera fila

        if ($fila['contador']==0)
            return false;
        else
            return true;
    }

    //-----------------------------------------------------------
    /**
    * Esta funcion cuenta el nro. de registros que existe para un valor dado de un campo
    * 
	* @access public
	* @param    string      $nombre_columna 	Nombre de la columna a contar
	* @param    string      $valor 				Valor de la columna a buscar
    * @return   boolean 	Devuelve el numero de filas que cumplen con lo solicitado
    * @example "sample_tsdk_recordset.php"
    */
    public function contar_registros($nombre_columna,$valor)
    {
        $comando =  "select count(*) as contador ";
        $comando .= "from ";
        $comando .= $this->m_nombretabla." ";
        $comando .= "where ";
        $comando .= $nombre_columna." = ";
        $comando .= $valor;

        $tabla = $this->get_tabla_from_sql($comando);

        return $tabla[0]["contador"];
    }

    //-----------------------------------------------------------
    /**
    * Esta funcion ejecuta una consulta GRABAR clasica.
    * Utiliza los campos para su contruccion. 
    * 
    * Los parametros de la funcion son:
    * 
    * $campos_no_writables = array()
    * : Arreglo con la lista de campos que no se deben incluir en la consulta.
    * 
    * $campos_as_basedatos = array()
    * : Arreglo con la lista de campos que se deben colocar en la consulta tal cual porque son funciones.
    * 
	* @access public
    * @return   integer   Devuelve el numero de filas afectadas. Devuelve -1 en caso de error.
    * @example "sample_tsdk_recordset.php"
    */
    public function grabar()
    {
        //obteniendo los parametros
        $parametros = func_get_args();
        $campos_no_writables = isset($parametros['0'])?$parametros['0']:array();
        $campos_as_basedatos = isset($parametros['1'])?$parametros['1']:array();

        //Inicio de funcion
        if ($this->existe())
        {
            return $this->modificar($campos_no_writables,$campos_as_basedatos);
        }else{
            return $this->insertar($campos_no_writables,$campos_as_basedatos);
        }
    }

    //------------------------------------------------------------------------------------------
    // Esta funcion permite llamar a las funciones sobrecargadas
    // aqui se definen como privadas para asegurar que se llaman desde el --call
    //------------------------------------------------------------------------------------------
    /*function __call($nombrefuncion,$argumentos)
    {
        if (method_exists($this, $nombrefuncion))
        {
            error_log("antes de llamar a call_user");
            return call_user_func_array( array($this,$nombrefuncion),$argumentos);
        }
        else
        {
            error_log("Error en llamada a funcion [ ".__CLASS__."::".$nombrefuncion." ]");
            return null;
        }
    }*/
}
?>

